[gd_scene load_steps=2 format=3 uid="uid://bbwwrwfb2krys"]

[ext_resource type="AudioStream" uid="uid://b131xxr3os0o5" path="res://Assets/music/time_for_adventure.mp3" id="1_igeoa"]

[node name="Music" type="AudioStreamPlayer2D"]
stream = ExtResource("1_igeoa")
autoplay = true
bus = &"Music"
